^C:\USERS\SUS-ADMIN\SOURCE\REPOS\HOMEWORK16\DEBUG\HOMEWORK16.OBJ
C:\USERS\SUS-ADMIN\SOURCE\REPOS\HOMEWORK16\DEBUG\HOMEWORK16.EXE
C:\USERS\SUS-ADMIN\SOURCE\REPOS\HOMEWORK16\DEBUG\HOMEWORK16.ILK
C:\USERS\SUS-ADMIN\SOURCE\REPOS\HOMEWORK16\DEBUG\HOMEWORK16.PDB
